...................
----------------------------------------------------------------------
Ran 19 tests in 0.070s

OK
Name             Stmts   Miss Branch BrPart  Cover   Missing
------------------------------------------------------------
Collatz.py          51      0     24      0   100%
TestCollatz.py      80      0      0      0   100%
------------------------------------------------------------
TOTAL              131      0     24      0   100%
