1 10 20
100 200 125
201 210 89
900 1000 174
300 310 87
350 450 134
400 420 134
500 520 124
100 110 114
90 120 119
60 80 116
570 600 119
601 610 132
620 700 145
701 710 171
720 730 96
40 80 116
50 55 113
390 400 121
910 999 174
10 10 7
100 100 26
50 50 25
200 200 27
500 500 111
340 340 12
999 999 50
22000 22000 44
88888 88888 59
100000 100000 129
7800 9000 252
10000 10100 224
50000 50200 234
4000 5000 215
10000 11000 268
350000 350100 242
700000 700100 336
999900 999999 259
8000 9000 247
6350 7500 257
60000 65000 335
90000 91000 315
3400 4000 238
800000 801000 375
344634 350000 441
69 235 128
13623 14000 258
5062 7500 262
10 1 20
50 11 112
80 34 116
134 70 122
189 89 125
200 100 125
210 201 89
1000 900 174
300 270 118
350 250 144
500 300 144
456 200 144
700 300 145
750 500 171
800 200 171
900 732 179
1000 990 112
1200 800 182
1400 1300 177
1600 700 182
2000 1800 175
3467 3000 199
3500 2500 217
4600 2000 238
5600 5500 236
7046 5000 262
8900 8000 234
10423 9000 260
11000 10000 268
20100 20000 243
25700 25000 264
30452 23565 308
40000 38000 306
55555 53056 322
60800 59000 317
70341 67934 312
80999 80000 320
91111 100000 333
100000 99900 227
150000 140000 375
209875 208753 311
500000 499000 395
500001 500000 152
500000 502000 364
603800 600000 403
888888 888880 264
999999 999900 259
50000 50000 128
3456 3456 119
76543 76543 108
123 123 47
2345 2345 152
7654 7654 84
888 888 73
1034 1034 125
15000 15000 178
990 990 99
