..........................
----------------------------------------------------------------------
Ran 26 tests in 0.387s

OK
Name             Stmts   Miss Branch BrPart  Cover   Missing
------------------------------------------------------------
Collatz.py          79      1     42      2    98%   152->165, 194->195, 195
TestCollatz.py     104      0      0      0   100%
------------------------------------------------------------
TOTAL              183      1     42      2    99%