................
----------------------------------------------------------------------
Ran 16 tests in 0.841s

OK
Name             Stmts   Miss Branch BrPart  Cover   Missing
------------------------------------------------------------
Collatz.py          57      0     26      1    99%   59->61
TestCollatz.py      69      0      0      0   100%
------------------------------------------------------------
TOTAL              126      0     26      1    99%
